-- Merging decision tree log ---
manifest
ADDED from D:\Mario\0_workspace\repositorio_medcape_android_BBB\BTViewer_Android_Studio\app\src\main\AndroidManifest.xml:2:1-31:12
	package
		ADDED from D:\Mario\0_workspace\repositorio_medcape_android_BBB\BTViewer_Android_Studio\app\src\main\AndroidManifest.xml:3:5-25
		INJECTED from D:\Mario\0_workspace\repositorio_medcape_android_BBB\BTViewer_Android_Studio\app\src\main\AndroidManifest.xml
		INJECTED from D:\Mario\0_workspace\repositorio_medcape_android_BBB\BTViewer_Android_Studio\app\src\main\AndroidManifest.xml
	android:versionName
		ADDED from D:\Mario\0_workspace\repositorio_medcape_android_BBB\BTViewer_Android_Studio\app\src\main\AndroidManifest.xml:5:5-30
		INJECTED from D:\Mario\0_workspace\repositorio_medcape_android_BBB\BTViewer_Android_Studio\app\src\main\AndroidManifest.xml
		INJECTED from D:\Mario\0_workspace\repositorio_medcape_android_BBB\BTViewer_Android_Studio\app\src\main\AndroidManifest.xml
	android:versionCode
		ADDED from D:\Mario\0_workspace\repositorio_medcape_android_BBB\BTViewer_Android_Studio\app\src\main\AndroidManifest.xml:4:5-28
		INJECTED from D:\Mario\0_workspace\repositorio_medcape_android_BBB\BTViewer_Android_Studio\app\src\main\AndroidManifest.xml
		INJECTED from D:\Mario\0_workspace\repositorio_medcape_android_BBB\BTViewer_Android_Studio\app\src\main\AndroidManifest.xml
	xmlns:android
		ADDED from D:\Mario\0_workspace\repositorio_medcape_android_BBB\BTViewer_Android_Studio\app\src\main\AndroidManifest.xml:2:11-69
uses-sdk
ADDED from D:\Mario\0_workspace\repositorio_medcape_android_BBB\BTViewer_Android_Studio\app\src\main\AndroidManifest.xml:7:5-9:41
MERGED from [com.android.support:appcompat-v7:19.1.0] C:\Users\michi\.android\build-cache\857902a7b47c277a4818973ffce4b9a91871e61b\output\AndroidManifest.xml:18:5-42
	android:targetSdkVersion
		ADDED from D:\Mario\0_workspace\repositorio_medcape_android_BBB\BTViewer_Android_Studio\app\src\main\AndroidManifest.xml:9:9-38
		INJECTED from D:\Mario\0_workspace\repositorio_medcape_android_BBB\BTViewer_Android_Studio\app\src\main\AndroidManifest.xml
		INJECTED from D:\Mario\0_workspace\repositorio_medcape_android_BBB\BTViewer_Android_Studio\app\src\main\AndroidManifest.xml
	android:minSdkVersion
		ADDED from D:\Mario\0_workspace\repositorio_medcape_android_BBB\BTViewer_Android_Studio\app\src\main\AndroidManifest.xml:8:9-35
		INJECTED from D:\Mario\0_workspace\repositorio_medcape_android_BBB\BTViewer_Android_Studio\app\src\main\AndroidManifest.xml
		INJECTED from D:\Mario\0_workspace\repositorio_medcape_android_BBB\BTViewer_Android_Studio\app\src\main\AndroidManifest.xml
uses-permission#android.permission.BLUETOOTH_ADMIN
ADDED from D:\Mario\0_workspace\repositorio_medcape_android_BBB\BTViewer_Android_Studio\app\src\main\AndroidManifest.xml:11:5-73
	android:name
		ADDED from D:\Mario\0_workspace\repositorio_medcape_android_BBB\BTViewer_Android_Studio\app\src\main\AndroidManifest.xml:11:22-71
uses-permission#android.permission.BLUETOOTH
ADDED from D:\Mario\0_workspace\repositorio_medcape_android_BBB\BTViewer_Android_Studio\app\src\main\AndroidManifest.xml:12:5-67
	android:name
		ADDED from D:\Mario\0_workspace\repositorio_medcape_android_BBB\BTViewer_Android_Studio\app\src\main\AndroidManifest.xml:12:22-65
uses-permission#android.permission.WRITE_EXTERNAL_STORAGE
ADDED from D:\Mario\0_workspace\repositorio_medcape_android_BBB\BTViewer_Android_Studio\app\src\main\AndroidManifest.xml:13:5-80
	android:name
		ADDED from D:\Mario\0_workspace\repositorio_medcape_android_BBB\BTViewer_Android_Studio\app\src\main\AndroidManifest.xml:13:22-78
application
ADDED from D:\Mario\0_workspace\repositorio_medcape_android_BBB\BTViewer_Android_Studio\app\src\main\AndroidManifest.xml:15:5-29:19
MERGED from [com.android.support:appcompat-v7:19.1.0] C:\Users\michi\.android\build-cache\857902a7b47c277a4818973ffce4b9a91871e61b\output\AndroidManifest.xml:19:5-20
	android:label
		ADDED from D:\Mario\0_workspace\repositorio_medcape_android_BBB\BTViewer_Android_Studio\app\src\main\AndroidManifest.xml:18:9-41
	android:allowBackup
		ADDED from D:\Mario\0_workspace\repositorio_medcape_android_BBB\BTViewer_Android_Studio\app\src\main\AndroidManifest.xml:16:9-35
	android:icon
		ADDED from D:\Mario\0_workspace\repositorio_medcape_android_BBB\BTViewer_Android_Studio\app\src\main\AndroidManifest.xml:17:9-45
	android:theme
		ADDED from D:\Mario\0_workspace\repositorio_medcape_android_BBB\BTViewer_Android_Studio\app\src\main\AndroidManifest.xml:19:9-40
activity#com.viewer.Viewer
ADDED from D:\Mario\0_workspace\repositorio_medcape_android_BBB\BTViewer_Android_Studio\app\src\main\AndroidManifest.xml:20:9-28:20
	android:screenOrientation
		ADDED from D:\Mario\0_workspace\repositorio_medcape_android_BBB\BTViewer_Android_Studio\app\src\main\AndroidManifest.xml:23:13-50
	android:theme
		ADDED from D:\Mario\0_workspace\repositorio_medcape_android_BBB\BTViewer_Android_Studio\app\src\main\AndroidManifest.xml:22:13-60
	android:name
		ADDED from D:\Mario\0_workspace\repositorio_medcape_android_BBB\BTViewer_Android_Studio\app\src\main\AndroidManifest.xml:21:13-45
intent-filter#android.intent.action.MAIN+android.intent.category.LAUNCHER
ADDED from D:\Mario\0_workspace\repositorio_medcape_android_BBB\BTViewer_Android_Studio\app\src\main\AndroidManifest.xml:24:13-27:29
action#android.intent.action.MAIN
ADDED from D:\Mario\0_workspace\repositorio_medcape_android_BBB\BTViewer_Android_Studio\app\src\main\AndroidManifest.xml:25:17-69
	android:name
		ADDED from D:\Mario\0_workspace\repositorio_medcape_android_BBB\BTViewer_Android_Studio\app\src\main\AndroidManifest.xml:25:25-66
category#android.intent.category.LAUNCHER
ADDED from D:\Mario\0_workspace\repositorio_medcape_android_BBB\BTViewer_Android_Studio\app\src\main\AndroidManifest.xml:26:17-77
	android:name
		ADDED from D:\Mario\0_workspace\repositorio_medcape_android_BBB\BTViewer_Android_Studio\app\src\main\AndroidManifest.xml:26:27-74
